Ellis et al. 2023 Meta-analysis R Code
…
‘metafor’ - V. ‘3.8.1’

‘clubSandwich’ - V. ‘0.5.8’

‘dmetar’ - V. ‘0.0.9000’

C. Load extracted results data

Note: Extracted results data can be downloaded on GitHub: https://github.com/Lauren-Ellis/Ellis-et-al.-2023-OP-NMC-Insecticides-and-Sperm-Concentration

OPNMC_data <- read_excel("Ellis-et-al-2023-study-results-data.xlsx",
                          sheet = "Results Data")
OPNMC_data

## # A tibble: 42 × 60
##    Study   ES_ID Study…¹ Study…² Country Recru…³ AbsTi…⁴ MedRi…⁵ CoExp…⁶ Expos…⁷
##    <chr>   <dbl>   <dbl>   <dbl> <chr>   <chr>     <dbl>   <dbl>   <dbl> <chr>  
##  1 Dziewi…     1       1       1 Poland  Clinic        1       1       0 Enviro…
##  2 Dziewi…     2       1       1 Poland  Clinic        1       1       0 Enviro…
##  3 Gharfo…     3       2       2 Iran    Popula…       0       1       0 Occupa…
##  4 Hossai…     4       3       3 Malays… Popula…       0       1       0 Occupa…
##  5 Manika…     5       4       4 India   Clinic        0       1       0 Occupa…
##  6 Marmol…     6       5       5 Venezu… Popula…       0       1       0 Occupa…
##  7 Meeker…     7       6       6 USA     Clinic        1       1       0 Enviro…
##  8 Meeker…     8       6       6 USA     Clinic        1       1       0 Enviro…
##  9 Meeker…     9       6       6 USA     Clinic        1       1       0 Enviro…
## 10 Meeker…    10       6       6 USA     Clinic        1       1       0 Enviro…
## # … with 32 more rows, 50 more variables: Exposure_Assessment_Method <chr>,
## #   Insecticide_Class <chr>, Parent_Metabolite <chr>, Comparison_Groups <chr>,
## #   Exposure_Duration_Notes <chr>, Stat_Test <chr>,
## #   Effect_Size_Being_Extracted <chr>, Effect_Size_Rationale <chr>,
## #   Formula_Inputs <chr>, Stat_Inputs <chr>, SA_Imputation <dbl>, SA_Log <dbl>,
## #   SA_Transform <dbl>, Bivar_Multivar <chr>, No_Predictors <dbl>,
## #   Model_Covariates <chr>, N_E <dbl>, Mean_E <dbl>, SD_E <dbl>, N_C <dbl>, …
…
smd2hedgesG_var <- function(smd.var, N_Total, p) {
  smd.var * ((1 - (3 / (4 * ((N_Total - p - 1) - 1))))^2)
}

# Apply functions
OPNMC_Data_HedgesG <- OPNMC_Data4 %>%
  mutate(
    Gi = smd2hedgesG(smd = Di, N_Total = N_Total, p = No_Predictors),
    G_Vi = smd2hedgesG_var(smd.var = D_Vi, N_Total = N_Total, p = No_Predictors)
  )
OPNMC_Data_HedgesG

## # A tibble: 42 × 68
##    Study   ES_ID Study…¹ Study…² Country Recru…³ AbsTi…⁴ MedRi…⁵ CoExp…⁶ Expos…⁷
##    <chr>   <dbl>   <dbl>   <dbl> <chr>   <chr>     <dbl>   <dbl>   <dbl> <chr>  
##  1 Gharfo…     3       2       2 Iran    Popula…       0       1       0 Occupa…
##  2 Hossai…     4       3       3 Malays… Popula…       0       1       0 Occupa…
##  3 Marmol…     6       5       5 Venezu… Popula…       0       1       0 Occupa…
##  4 Mirand…    17       8       8 Venezu… Popula…       0       1       1 Occupa…
##  5 Multig…    18       9       9 Guadel… Popula…       1       1       0 Occupa…
##  6 Padung…    19      10      10 China   Popula…       0       1       0 Occupa…
##  7 Padung…    20      10      11 China   Popula…       0       1       0 Occupa…
##  8 Padung…    21      10      12 China   Popula…       0       1       0 Occupa…
##  9 Padung…    22      11      13 China   Popula…       1       1       0 Occupa…
## 10 Tan (2…    36      16      18 China   Popula…       0       0       1 Occupa…
## # … with 32 more rows, 58 more variables: Exposure_Assessment_Method <chr>,
## #   Insecticide_Class <chr>, Parent_Metabolite <chr>, Comparison_Groups <chr>,
## #   Exposure_Duration_Notes <chr>, Stat_Test <chr>,
## #   Effect_Size_Being_Extracted <chr>, Effect_Size_Rationale <chr>,
## #   Formula_Inputs <chr>, Stat_Inputs <chr>, SA_Imputation <dbl>, SA_Log <dbl>,
## #   SA_Transform <dbl>, Bivar_Multivar <chr>, No_Predictors <dbl>,
## #   Model_Covariates <chr>, N_E <dbl>, Mean_E <dbl>, SD_E <dbl>, N_C <dbl>, …
…
B. Number of unique men included

# No. of effect size estimates and men by study population
OPNMCdatadistro_SampleID <- OPNMC_Data_HedgesG %>%
  group_by(StudyPop_ID) %>%
  summarise(
    N_effects = length(unique(ES_ID)),
    N_men = max(N_Total)
  )
OPNMCdatadistro_SampleID

## # A tibble: 21 × 3
##    StudyPop_ID N_effects N_men
##          <dbl>     <int> <dbl>
##  1           1         2   315
##  2           2         1    60
##  3           3         1   152
##  4           4         1    10
##  5           5         1    59
##  6           6         4   114
##  7           7         6   116
##  8           8         1    99
##  9           9         1    87
## 10          10         1    17
## # … with 11 more rows
…
